{
  "extras": [
    "lazyvim.plugins.extras.editor.symbols-outline",
    "lazyvim.plugins.extras.formatting.prettier",
    "lazyvim.plugins.extras.lang.java"
  ],
  "news": {
    "NEWS.md": "2123"
  },
  "version": 2
}